volume_shaper/transcript
vsim -gui work.volume_shaper_tb
# vsim -gui work.volume_shaper_tb 
# Start time: 14:28:11 on Dec 11,2024
# Loading sv_std.std
# Loading work.volume_shaper_tb
# Loading work.volume_shaper
# WARNING: No extended dataflow license exists
add wave -position insertpoint sim:/volume_shaper_tb/*
add wave -position insertpoint sim:/volume_shaper_tb/uut/*
run
# At time                    0, envelope = 0000, state = 00000000000000000000000000000000, amplitude_counter =   0
# At time                15000, envelope = 0000, state = 00000000000000000000000000000001, amplitude_counter =   0
# At time                25000, envelope = 0000, state = 00000000000000000000000000000010, amplitude_counter =   0
# At time                35000, envelope = 0000, state = 00000000000000000000000000000010, amplitude_counter =   1
# At time                45000, envelope = 0000, state = 00000000000000000000000000000010, amplitude_counter =   2
# At time                55000, envelope = 0000, state = 00000000000000000000000000000010, amplitude_counter =   3
# At time                65000, envelope = 0000, state = 00000000000000000000000000000010, amplitude_counter =   4
# At time                75000, envelope = 0000, state = 00000000000000000000000000000010, amplitude_counter =   5
# At time                85000, envelope = 0000, state = 00000000000000000000000000000010, amplitude_counter =   6
# At time                95000, envelope = 0000, state = 00000000000000000000000000000010, amplitude_counter =   7
# At time               105000, envelope = 0000, state = 00000000000000000000000000000010, amplitude_counter =   8
# At time               115000, envelope = 0000, state = 00000000000000000000000000000010, amplitude_counter =   9
# At time               125000, envelope = 0000, state = 00000000000000000000000000000010, amplitude_counter =  10
# At time               135000, envelope = 0000, state = 00000000000000000000000000000010, amplitude_counter =  11
# At time               145000, envelope = 0000, state = 00000000000000000000000000000010, amplitude_counter =  12
# At time               155000, envelope = 0000, state = 00000000000000000000000000000010, amplitude_counter =  13
# At time               165000, envelope = 0000, state = 00000000000000000000000000000010, amplitude_counter =  14
# At time               175000, envelope = 0000, state = 00000000000000000000000000000010, amplitude_counter =  15
# At time               185000, envelope = 0000, state = 00000000000000000000000000000010, amplitude_counter =  16
# At time               195000, envelope = 0000, state = 00000000000000000000000000000010, amplitude_counter =  17
# At time               205000, envelope = 0000, state = 00000000000000000000000000000010, amplitude_counter =  18
# At time               215000, envelope = 0000, state = 00000000000000000000000000000010, amplitude_counter =  19
# ** Note: $finish    : C:/Users/Eve/Documents/GitHub/drummer/volume_shaper/volume_shaper_tb.sv(53)
#    Time: 220 ns  Iteration: 0  Instance: /volume_shaper_tb
# 1
# Break in Module volume_shaper_tb at C:/Users/Eve/Documents/GitHub/drummer/volume_shaper/volume_shaper_tb.sv line 53
run
# At time               225000, envelope = 0000, state = 00000000000000000000000000000010, amplitude_counter =  20
# At time               235000, envelope = 0000, state = 00000000000000000000000000000010, amplitude_counter =  21
# At time               245000, envelope = 0000, state = 00000000000000000000000000000010, amplitude_counter =  22
# At time               255000, envelope = 0000, state = 00000000000000000000000000000010, amplitude_counter =  23
# At time               265000, envelope = 0000, state = 00000000000000000000000000000010, amplitude_counter =  24
# At time               275000, envelope = 0000, state = 00000000000000000000000000000010, amplitude_counter =  25
# At time               285000, envelope = 0000, state = 00000000000000000000000000000010, amplitude_counter =  26
# At time               295000, envelope = 0000, state = 00000000000000000000000000000010, amplitude_counter =  27
# At time               305000, envelope = 0000, state = 00000000000000000000000000000010, amplitude_counter =  28
# At time               315000, envelope = 0000, state = 00000000000000000000000000000010, amplitude_counter =  29
# At time               325000, envelope = 0000, state = 00000000000000000000000000000010, amplitude_counter =  30
# At time               335000, envelope = 0000, state = 00000000000000000000000000000010, amplitude_counter =  31
# At time               345000, envelope = 0001, state = 00000000000000000000000000000010, amplitude_counter =  32
# At time               355000, envelope = 0001, state = 00000000000000000000000000000010, amplitude_counter =  33
# At time               365000, envelope = 0001, state = 00000000000000000000000000000010, amplitude_counter =  34
# At time               375000, envelope = 0001, state = 00000000000000000000000000000010, amplitude_counter =  35
# At time               385000, envelope = 0001, state = 00000000000000000000000000000010, amplitude_counter =  36
# At time               395000, envelope = 0001, state = 00000000000000000000000000000010, amplitude_counter =  37
# At time               405000, envelope = 0001, state = 00000000000000000000000000000010, amplitude_counter =  38
# At time               415000, envelope = 0001, state = 00000000000000000000000000000010, amplitude_counter =  39
# At time               425000, envelope = 0001, state = 00000000000000000000000000000010, amplitude_counter =  40
# At time               435000, envelope = 0001, state = 00000000000000000000000000000010, amplitude_counter =  41
# At time               445000, envelope = 0001, state = 00000000000000000000000000000010, amplitude_counter =  42
# At time               455000, envelope = 0001, state = 00000000000000000000000000000010, amplitude_counter =  43
# At time               465000, envelope = 0001, state = 00000000000000000000000000000010, amplitude_counter =  44
# At time               475000, envelope = 0001, state = 00000000000000000000000000000010, amplitude_counter =  45
# At time               485000, envelope = 0001, state = 00000000000000000000000000000010, amplitude_counter =  46
# At time               495000, envelope = 0001, state = 00000000000000000000000000000010, amplitude_counter =  47
# At time               505000, envelope = 0001, state = 00000000000000000000000000000010, amplitude_counter =  48
# At time               515000, envelope = 0001, state = 00000000000000000000000000000010, amplitude_counter =  49
# At time               525000, envelope = 0001, state = 00000000000000000000000000000010, amplitude_counter =  50
# At time               535000, envelope = 0001, state = 00000000000000000000000000000010, amplitude_counter =  51
# At time               545000, envelope = 0001, state = 00000000000000000000000000000010, amplitude_counter =  52
# At time               555000, envelope = 0001, state = 00000000000000000000000000000010, amplitude_counter =  53
# At time               565000, envelope = 0001, state = 00000000000000000000000000000010, amplitude_counter =  54
# At time               575000, envelope = 0001, state = 00000000000000000000000000000010, amplitude_counter =  55
# At time               585000, envelope = 0001, state = 00000000000000000000000000000010, amplitude_counter =  56
# At time               595000, envelope = 0001, state = 00000000000000000000000000000010, amplitude_counter =  57
# At time               605000, envelope = 0001, state = 00000000000000000000000000000010, amplitude_counter =  58
# At time               615000, envelope = 0001, state = 00000000000000000000000000000010, amplitude_counter =  59
# At time               625000, envelope = 0001, state = 00000000000000000000000000000010, amplitude_counter =  60
# At time               635000, envelope = 0001, state = 00000000000000000000000000000010, amplitude_counter =  61
# At time               645000, envelope = 0001, state = 00000000000000000000000000000010, amplitude_counter =  62
# At time               655000, envelope = 0001, state = 00000000000000000000000000000010, amplitude_counter =  63
# At time               665000, envelope = 0010, state = 00000000000000000000000000000010, amplitude_counter =  64
# At time               675000, envelope = 0010, state = 00000000000000000000000000000010, amplitude_counter =  65
# At time               685000, envelope = 0010, state = 00000000000000000000000000000010, amplitude_counter =  66
# At time               695000, envelope = 0010, state = 00000000000000000000000000000010, amplitude_counter =  67
# At time               705000, envelope = 0010, state = 00000000000000000000000000000010, amplitude_counter =  68
# At time               715000, envelope = 0010, state = 00000000000000000000000000000010, amplitude_counter =  69
# At time               725000, envelope = 0010, state = 00000000000000000000000000000010, amplitude_counter =  70
# At time               735000, envelope = 0010, state = 00000000000000000000000000000010, amplitude_counter =  71
# At time               745000, envelope = 0010, state = 00000000000000000000000000000010, amplitude_counter =  72
# At time               755000, envelope = 0010, state = 00000000000000000000000000000010, amplitude_counter =  73
# At time               765000, envelope = 0010, state = 00000000000000000000000000000010, amplitude_counter =  74
# At time               775000, envelope = 0010, state = 00000000000000000000000000000010, amplitude_counter =  75
# At time               785000, envelope = 0010, state = 00000000000000000000000000000010, amplitude_counter =  76
# At time               795000, envelope = 0010, state = 00000000000000000000000000000010, amplitude_counter =  77
# At time               805000, envelope = 0010, state = 00000000000000000000000000000010, amplitude_counter =  78
# At time               815000, envelope = 0010, state = 00000000000000000000000000000010, amplitude_counter =  79
# At time               825000, envelope = 0010, state = 00000000000000000000000000000010, amplitude_counter =  80
# At time               835000, envelope = 0010, state = 00000000000000000000000000000010, amplitude_counter =  81
# At time               845000, envelope = 0010, state = 00000000000000000000000000000010, amplitude_counter =  82
# At time               855000, envelope = 0010, state = 00000000000000000000000000000010, amplitude_counter =  83
# At time               865000, envelope = 0010, state = 00000000000000000000000000000010, amplitude_counter =  84
# At time               875000, envelope = 0010, state = 00000000000000000000000000000010, amplitude_counter =  85
# At time               885000, envelope = 0010, state = 00000000000000000000000000000010, amplitude_counter =  86
# At time               895000, envelope = 0010, state = 00000000000000000000000000000010, amplitude_counter =  87
# At time               905000, envelope = 0010, state = 00000000000000000000000000000010, amplitude_counter =  88
# At time               915000, envelope = 0010, state = 00000000000000000000000000000010, amplitude_counter =  89
# At time               925000, envelope = 0010, state = 00000000000000000000000000000010, amplitude_counter =  90
# At time               935000, envelope = 0010, state = 00000000000000000000000000000010, amplitude_counter =  91
# At time               945000, envelope = 0010, state = 00000000000000000000000000000010, amplitude_counter =  92
# At time               955000, envelope = 0010, state = 00000000000000000000000000000010, amplitude_counter =  93
# At time               965000, envelope = 0010, state = 00000000000000000000000000000010, amplitude_counter =  94
# At time               975000, envelope = 0010, state = 00000000000000000000000000000010, amplitude_counter =  95
# At time               985000, envelope = 0011, state = 00000000000000000000000000000010, amplitude_counter =  96
# At time               995000, envelope = 0011, state = 00000000000000000000000000000010, amplitude_counter =  97
# At time              1005000, envelope = 0011, state = 00000000000000000000000000000010, amplitude_counter =  98
# At time              1015000, envelope = 0011, state = 00000000000000000000000000000010, amplitude_counter =  99
# At time              1025000, envelope = 0011, state = 00000000000000000000000000000010, amplitude_counter = 100
# At time              1035000, envelope = 0011, state = 00000000000000000000000000000010, amplitude_counter = 101
# At time              1045000, envelope = 0011, state = 00000000000000000000000000000010, amplitude_counter = 102
# At time              1055000, envelope = 0011, state = 00000000000000000000000000000010, amplitude_counter = 103
# At time              1065000, envelope = 0011, state = 00000000000000000000000000000010, amplitude_counter = 104
# At time              1075000, envelope = 0011, state = 00000000000000000000000000000010, amplitude_counter = 105
# At time              1085000, envelope = 0011, state = 00000000000000000000000000000010, amplitude_counter = 106
# At time              1095000, envelope = 0011, state = 00000000000000000000000000000010, amplitude_counter = 107
# At time              1105000, envelope = 0011, state = 00000000000000000000000000000010, amplitude_counter = 108
# At time              1115000, envelope = 0011, state = 00000000000000000000000000000010, amplitude_counter = 109
# At time              1125000, envelope = 0011, state = 00000000000000000000000000000010, amplitude_counter = 110
# At time              1135000, envelope = 0011, state = 00000000000000000000000000000010, amplitude_counter = 111
# At time              1145000, envelope = 0011, state = 00000000000000000000000000000010, amplitude_counter = 112
# At time              1155000, envelope = 0011, state = 00000000000000000000000000000010, amplitude_counter = 113
# At time              1165000, envelope = 0011, state = 00000000000000000000000000000010, amplitude_counter = 114
# At time              1175000, envelope = 0011, state = 00000000000000000000000000000010, amplitude_counter = 115
# At time              1185000, envelope = 0011, state = 00000000000000000000000000000010, amplitude_counter = 116
# At time              1195000, envelope = 0011, state = 00000000000000000000000000000010, amplitude_counter = 117
# At time              1205000, envelope = 0011, state = 00000000000000000000000000000010, amplitude_counter = 118
# At time              1215000, envelope = 0011, state = 00000000000000000000000000000010, amplitude_counter = 119
# At time              1225000, envelope = 0011, state = 00000000000000000000000000000010, amplitude_counter = 120
# At time              1235000, envelope = 0011, state = 00000000000000000000000000000010, amplitude_counter = 121
# At time              1245000, envelope = 0011, state = 00000000000000000000000000000010, amplitude_counter = 122
# At time              1255000, envelope = 0011, state = 00000000000000000000000000000010, amplitude_counter = 123
# At time              1265000, envelope = 0011, state = 00000000000000000000000000000010, amplitude_counter = 124
# At time              1275000, envelope = 0011, state = 00000000000000000000000000000010, amplitude_counter = 125
# At time              1285000, envelope = 0011, state = 00000000000000000000000000000010, amplitude_counter = 126
# At time              1295000, envelope = 0011, state = 00000000000000000000000000000010, amplitude_counter = 127
# At time              1305000, envelope = 0011, state = 00000000000000000000000000000011, amplitude_counter = 127
# At time              1315000, envelope = 0011, state = 00000000000000000000000000000011, amplitude_counter = 125
# At time              1325000, envelope = 0011, state = 00000000000000000000000000000011, amplitude_counter = 123
# At time              1335000, envelope = 0011, state = 00000000000000000000000000000011, amplitude_counter = 121
# At time              1345000, envelope = 0011, state = 00000000000000000000000000000011, amplitude_counter = 119
# At time              1355000, envelope = 0011, state = 00000000000000000000000000000011, amplitude_counter = 117
# At time              1365000, envelope = 0011, state = 00000000000000000000000000000011, amplitude_counter = 115
# At time              1375000, envelope = 0011, state = 00000000000000000000000000000011, amplitude_counter = 113
# At time              1385000, envelope = 0011, state = 00000000000000000000000000000011, amplitude_counter = 111
# At time              1395000, envelope = 0011, state = 00000000000000000000000000000011, amplitude_counter = 109
# At time              1405000, envelope = 0011, state = 00000000000000000000000000000011, amplitude_counter = 107
# At time              1415000, envelope = 0011, state = 00000000000000000000000000000011, amplitude_counter = 105
# At time              1425000, envelope = 0011, state = 00000000000000000000000000000011, amplitude_counter = 103
# At time              1435000, envelope = 0011, state = 00000000000000000000000000000011, amplitude_counter = 101
# At time              1445000, envelope = 0011, state = 00000000000000000000000000000011, amplitude_counter =  99
# At time              1455000, envelope = 0011, state = 00000000000000000000000000000011, amplitude_counter =  97
# At time              1465000, envelope = 0010, state = 00000000000000000000000000000011, amplitude_counter =  95
# At time              1475000, envelope = 0010, state = 00000000000000000000000000000011, amplitude_counter =  93
# At time              1485000, envelope = 0010, state = 00000000000000000000000000000011, amplitude_counter =  91
# At time              1495000, envelope = 0010, state = 00000000000000000000000000000011, amplitude_counter =  89
# At time              1505000, envelope = 0010, state = 00000000000000000000000000000011, amplitude_counter =  87
# At time              1515000, envelope = 0010, state = 00000000000000000000000000000011, amplitude_counter =  85
# At time              1525000, envelope = 0010, state = 00000000000000000000000000000011, amplitude_counter =  83
# At time              1535000, envelope = 0010, state = 00000000000000000000000000000011, amplitude_counter =  81
# At time              1545000, envelope = 0010, state = 00000000000000000000000000000011, amplitude_counter =  79
# At time              1555000, envelope = 0010, state = 00000000000000000000000000000011, amplitude_counter =  77
# At time              1565000, envelope = 0010, state = 00000000000000000000000000000011, amplitude_counter =  75
# At time              1575000, envelope = 0010, state = 00000000000000000000000000000011, amplitude_counter =  73
# At time              1585000, envelope = 0010, state = 00000000000000000000000000000011, amplitude_counter =  71
# At time              1595000, envelope = 0010, state = 00000000000000000000000000000011, amplitude_counter =  69
# At time              1605000, envelope = 0010, state = 00000000000000000000000000000011, amplitude_counter =  67
# At time              1615000, envelope = 0010, state = 00000000000000000000000000000011, amplitude_counter =  65
# At time              1625000, envelope = 0010, state = 00000000000000000000000000000100, amplitude_counter =  64
# At time              1795000, envelope = 0010, state = 00000000000000000000000000000101, amplitude_counter =  64
# At time              1805000, envelope = 0001, state = 00000000000000000000000000000101, amplitude_counter =  63
# At time              1815000, envelope = 0001, state = 00000000000000000000000000000101, amplitude_counter =  62
# At time              1825000, envelope = 0001, state = 00000000000000000000000000000101, amplitude_counter =  61
# At time              1835000, envelope = 0001, state = 00000000000000000000000000000101, amplitude_counter =  60
# At time              1845000, envelope = 0001, state = 00000000000000000000000000000101, amplitude_counter =  59
# At time              1855000, envelope = 0001, state = 00000000000000000000000000000101, amplitude_counter =  58
# At time              1865000, envelope = 0001, state = 00000000000000000000000000000101, amplitude_counter =  57
# At time              1875000, envelope = 0001, state = 00000000000000000000000000000101, amplitude_counter =  56
# At time              1885000, envelope = 0001, state = 00000000000000000000000000000101, amplitude_counter =  55
# At time              1895000, envelope = 0001, state = 00000000000000000000000000000101, amplitude_counter =  54
# At time              1905000, envelope = 0001, state = 00000000000000000000000000000101, amplitude_counter =  53
# At time              1915000, envelope = 0001, state = 00000000000000000000000000000101, amplitude_counter =  52
# At time              1925000, envelope = 0001, state = 00000000000000000000000000000101, amplitude_counter =  51
# At time              1935000, envelope = 0001, state = 00000000000000000000000000000101, amplitude_counter =  50
# At time              1945000, envelope = 0001, state = 00000000000000000000000000000101, amplitude_counter =  49
# At time              1955000, envelope = 0001, state = 00000000000000000000000000000101, amplitude_counter =  48
# At time              1965000, envelope = 0001, state = 00000000000000000000000000000101, amplitude_counter =  47
# At time              1975000, envelope = 0001, state = 00000000000000000000000000000101, amplitude_counter =  46
# At time              1985000, envelope = 0001, state = 00000000000000000000000000000101, amplitude_counter =  45
# At time              1995000, envelope = 0001, state = 00000000000000000000000000000101, amplitude_counter =  44
# At time              2005000, envelope = 0001, state = 00000000000000000000000000000101, amplitude_counter =  43
# At time              2015000, envelope = 0001, state = 00000000000000000000000000000101, amplitude_counter =  42
# At time              2025000, envelope = 0001, state = 00000000000000000000000000000101, amplitude_counter =  41
# At time              2035000, envelope = 0001, state = 00000000000000000000000000000101, amplitude_counter =  40
# At time              2045000, envelope = 0001, state = 00000000000000000000000000000101, amplitude_counter =  39
# At time              2055000, envelope = 0001, state = 00000000000000000000000000000101, amplitude_counter =  38
# At time              2065000, envelope = 0001, state = 00000000000000000000000000000101, amplitude_counter =  37
# At time              2075000, envelope = 0001, state = 00000000000000000000000000000101, amplitude_counter =  36
# At time              2085000, envelope = 0001, state = 00000000000000000000000000000101, amplitude_counter =  35
# At time              2095000, envelope = 0001, state = 00000000000000000000000000000101, amplitude_counter =  34
# At time              2105000, envelope = 0001, state = 00000000000000000000000000000101, amplitude_counter =  33
# At time              2115000, envelope = 0001, state = 00000000000000000000000000000101, amplitude_counter =  32
# At time              2125000, envelope = 0000, state = 00000000000000000000000000000101, amplitude_counter =  31
# At time              2135000, envelope = 0000, state = 00000000000000000000000000000101, amplitude_counter =  30
# At time              2145000, envelope = 0000, state = 00000000000000000000000000000101, amplitude_counter =  29
# At time              2155000, envelope = 0000, state = 00000000000000000000000000000101, amplitude_counter =  28
# At time              2165000, envelope = 0000, state = 00000000000000000000000000000101, amplitude_counter =  27
# At time              2175000, envelope = 0000, state = 00000000000000000000000000000101, amplitude_counter =  26
# At time              2185000, envelope = 0000, state = 00000000000000000000000000000101, amplitude_counter =  25
# At time              2195000, envelope = 0000, state = 00000000000000000000000000000101, amplitude_counter =  24
# At time              2205000, envelope = 0000, state = 00000000000000000000000000000101, amplitude_counter =  23
# At time              2215000, envelope = 0000, state = 00000000000000000000000000000101, amplitude_counter =  22
# At time              2225000, envelope = 0000, state = 00000000000000000000000000000101, amplitude_counter =  21
# At time              2235000, envelope = 0000, state = 00000000000000000000000000000101, amplitude_counter =  20
# At time              2245000, envelope = 0000, state = 00000000000000000000000000000101, amplitude_counter =  19
# At time              2255000, envelope = 0000, state = 00000000000000000000000000000101, amplitude_counter =  18
# At time              2265000, envelope = 0000, state = 00000000000000000000000000000101, amplitude_counter =  17
# At time              2275000, envelope = 0000, state = 00000000000000000000000000000101, amplitude_counter =  16
# At time              2285000, envelope = 0000, state = 00000000000000000000000000000101, amplitude_counter =  15
# At time              2295000, envelope = 0000, state = 00000000000000000000000000000101, amplitude_counter =  14
# At time              2305000, envelope = 0000, state = 00000000000000000000000000000101, amplitude_counter =  13
# At time              2315000, envelope = 0000, state = 00000000000000000000000000000101, amplitude_counter =  12
# At time              2325000, envelope = 0000, state = 00000000000000000000000000000101, amplitude_counter =  11
# At time              2335000, envelope = 0000, state = 00000000000000000000000000000101, amplitude_counter =  10
# At time              2345000, envelope = 0000, state = 00000000000000000000000000000101, amplitude_counter =   9
# At time              2355000, envelope = 0000, state = 00000000000000000000000000000101, amplitude_counter =   8
# At time              2365000, envelope = 0000, state = 00000000000000000000000000000101, amplitude_counter =   7
# At time              2375000, envelope = 0000, state = 00000000000000000000000000000101, amplitude_counter =   6
# At time              2385000, envelope = 0000, state = 00000000000000000000000000000101, amplitude_counter =   5
# At time              2395000, envelope = 0000, state = 00000000000000000000000000000101, amplitude_counter =   4
# At time              2405000, envelope = 0000, state = 00000000000000000000000000000101, amplitude_counter =   3
# At time              2415000, envelope = 0000, state = 00000000000000000000000000000101, amplitude_counter =   2
# At time              2425000, envelope = 0000, state = 00000000000000000000000000000101, amplitude_counter =   1
# At time              2435000, envelope = 0000, state = 00000000000000000000000000000000, amplitude_counter =   1
# Compile of volume_shaper.sv was successful.
# Compile of volume_shaper_tb.sv was successful.
# 2 compiles, 0 failed with no errors.
vsim -gui work.volume_shaper_tb
# End time: 14:49:17 on Dec 11,2024, Elapsed time: 0:21:06
# Errors: 0, Warnings: 2
# vsim -gui work.volume_shaper_tb 
# Start time: 14:49:17 on Dec 11,2024
# Loading sv_std.std
# Loading work.volume_shaper_tb
# Loading work.volume_shaper
add wave -position insertpoint sim:/volume_shaper_tb/*
add wave -position insertpoint sim:/volume_shaper_tb/uut/*
run
# At time                    0, envelope = 0000, state = 00000000000000000000000000000000, amplitude_counter =   0
# At time                15000, envelope = 0000, state = 00000000000000000000000000000001, amplitude_counter =   0
# At time                25000, envelope = 0000, state = 00000000000000000000000000000010, amplitude_counter =   0
# At time                35000, envelope = 0000, state = 00000000000000000000000000000010, amplitude_counter =   1
# At time                45000, envelope = 0000, state = 00000000000000000000000000000010, amplitude_counter =   2
# At time                55000, envelope = 0000, state = 00000000000000000000000000000010, amplitude_counter =   3
# At time                65000, envelope = 0000, state = 00000000000000000000000000000010, amplitude_counter =   4
# At time                75000, envelope = 0000, state = 00000000000000000000000000000010, amplitude_counter =   5
# At time                85000, envelope = 0000, state = 00000000000000000000000000000010, amplitude_counter =   6
# At time                95000, envelope = 0000, state = 00000000000000000000000000000010, amplitude_counter =   7
# At time               105000, envelope = 0000, state = 00000000000000000000000000000010, amplitude_counter =   8
# At time               115000, envelope = 0000, state = 00000000000000000000000000000010, amplitude_counter =   9
# At time               125000, envelope = 0000, state = 00000000000000000000000000000010, amplitude_counter =  10
# At time               135000, envelope = 0000, state = 00000000000000000000000000000010, amplitude_counter =  11
# At time               145000, envelope = 0000, state = 00000000000000000000000000000010, amplitude_counter =  12
# At time               155000, envelope = 0000, state = 00000000000000000000000000000010, amplitude_counter =  13
# At time               165000, envelope = 0000, state = 00000000000000000000000000000010, amplitude_counter =  14
# At time               175000, envelope = 0000, state = 00000000000000000000000000000010, amplitude_counter =  15
# At time               185000, envelope = 0000, state = 00000000000000000000000000000010, amplitude_counter =  16
# At time               195000, envelope = 0000, state = 00000000000000000000000000000010, amplitude_counter =  17
# At time               205000, envelope = 0000, state = 00000000000000000000000000000010, amplitude_counter =  18
# At time               215000, envelope = 0000, state = 00000000000000000000000000000010, amplitude_counter =  19
# ** Note: $finish    : C:/Users/Eve/Documents/GitHub/drummer/volume_shaper/volume_shaper_tb.sv(53)
#    Time: 220 ns  Iteration: 0  Instance: /volume_shaper_tb
# 1
# Break in Module volume_shaper_tb at C:/Users/Eve/Documents/GitHub/drummer/volume_shaper/volume_shaper_tb.sv line 53
run
# At time               225000, envelope = 0000, state = 00000000000000000000000000000010, amplitude_counter =  20
# At time               235000, envelope = 0000, state = 00000000000000000000000000000010, amplitude_counter =  21
# At time               245000, envelope = 0000, state = 00000000000000000000000000000010, amplitude_counter =  22
# At time               255000, envelope = 0000, state = 00000000000000000000000000000010, amplitude_counter =  23
# At time               265000, envelope = 0000, state = 00000000000000000000000000000010, amplitude_counter =  24
# At time               275000, envelope = 0000, state = 00000000000000000000000000000010, amplitude_counter =  25
# At time               285000, envelope = 0000, state = 00000000000000000000000000000010, amplitude_counter =  26
# At time               295000, envelope = 0000, state = 00000000000000000000000000000010, amplitude_counter =  27
# At time               305000, envelope = 0000, state = 00000000000000000000000000000010, amplitude_counter =  28
# At time               315000, envelope = 0000, state = 00000000000000000000000000000010, amplitude_counter =  29
# At time               325000, envelope = 0000, state = 00000000000000000000000000000010, amplitude_counter =  30
# At time               335000, envelope = 0000, state = 00000000000000000000000000000010, amplitude_counter =  31
# At time               345000, envelope = 0001, state = 00000000000000000000000000000010, amplitude_counter =  32
# At time               355000, envelope = 0001, state = 00000000000000000000000000000010, amplitude_counter =  33
# At time               365000, envelope = 0001, state = 00000000000000000000000000000010, amplitude_counter =  34
# At time               375000, envelope = 0001, state = 00000000000000000000000000000010, amplitude_counter =  35
# At time               385000, envelope = 0001, state = 00000000000000000000000000000010, amplitude_counter =  36
# At time               395000, envelope = 0001, state = 00000000000000000000000000000010, amplitude_counter =  37
# At time               405000, envelope = 0001, state = 00000000000000000000000000000010, amplitude_counter =  38
# At time               415000, envelope = 0001, state = 00000000000000000000000000000010, amplitude_counter =  39
# At time               425000, envelope = 0001, state = 00000000000000000000000000000010, amplitude_counter =  40
# At time               435000, envelope = 0001, state = 00000000000000000000000000000010, amplitude_counter =  41
# At time               445000, envelope = 0001, state = 00000000000000000000000000000010, amplitude_counter =  42
# At time               455000, envelope = 0001, state = 00000000000000000000000000000010, amplitude_counter =  43
# At time               465000, envelope = 0001, state = 00000000000000000000000000000010, amplitude_counter =  44
# At time               475000, envelope = 0001, state = 00000000000000000000000000000010, amplitude_counter =  45
# At time               485000, envelope = 0001, state = 00000000000000000000000000000010, amplitude_counter =  46
# At time               495000, envelope = 0001, state = 00000000000000000000000000000010, amplitude_counter =  47
# At time               505000, envelope = 0001, state = 00000000000000000000000000000010, amplitude_counter =  48
# At time               515000, envelope = 0001, state = 00000000000000000000000000000010, amplitude_counter =  49
# At time               525000, envelope = 0001, state = 00000000000000000000000000000010, amplitude_counter =  50
# At time               535000, envelope = 0001, state = 00000000000000000000000000000010, amplitude_counter =  51
# At time               545000, envelope = 0001, state = 00000000000000000000000000000010, amplitude_counter =  52
# At time               555000, envelope = 0001, state = 00000000000000000000000000000010, amplitude_counter =  53
# At time               565000, envelope = 0001, state = 00000000000000000000000000000010, amplitude_counter =  54
# At time               575000, envelope = 0001, state = 00000000000000000000000000000010, amplitude_counter =  55
# At time               585000, envelope = 0001, state = 00000000000000000000000000000010, amplitude_counter =  56
# At time               595000, envelope = 0001, state = 00000000000000000000000000000010, amplitude_counter =  57
# At time               605000, envelope = 0001, state = 00000000000000000000000000000010, amplitude_counter =  58
# At time               615000, envelope = 0001, state = 00000000000000000000000000000010, amplitude_counter =  59
# At time               625000, envelope = 0001, state = 00000000000000000000000000000010, amplitude_counter =  60
# At time               635000, envelope = 0001, state = 00000000000000000000000000000010, amplitude_counter =  61
# At time               645000, envelope = 0001, state = 00000000000000000000000000000010, amplitude_counter =  62
# At time               655000, envelope = 0001, state = 00000000000000000000000000000010, amplitude_counter =  63
# At time               665000, envelope = 0010, state = 00000000000000000000000000000010, amplitude_counter =  64
# At time               675000, envelope = 0010, state = 00000000000000000000000000000010, amplitude_counter =  65
# At time               685000, envelope = 0010, state = 00000000000000000000000000000010, amplitude_counter =  66
# At time               695000, envelope = 0010, state = 00000000000000000000000000000010, amplitude_counter =  67
# At time               705000, envelope = 0010, state = 00000000000000000000000000000010, amplitude_counter =  68
# At time               715000, envelope = 0010, state = 00000000000000000000000000000010, amplitude_counter =  69
# At time               725000, envelope = 0010, state = 00000000000000000000000000000010, amplitude_counter =  70
# At time               735000, envelope = 0010, state = 00000000000000000000000000000010, amplitude_counter =  71
# At time               745000, envelope = 0010, state = 00000000000000000000000000000010, amplitude_counter =  72
# At time               755000, envelope = 0010, state = 00000000000000000000000000000010, amplitude_counter =  73
# At time               765000, envelope = 0010, state = 00000000000000000000000000000010, amplitude_counter =  74
# At time               775000, envelope = 0010, state = 00000000000000000000000000000010, amplitude_counter =  75
# At time               785000, envelope = 0010, state = 00000000000000000000000000000010, amplitude_counter =  76
# At time               795000, envelope = 0010, state = 00000000000000000000000000000010, amplitude_counter =  77
# At time               805000, envelope = 0010, state = 00000000000000000000000000000010, amplitude_counter =  78
# At time               815000, envelope = 0010, state = 00000000000000000000000000000010, amplitude_counter =  79
# At time               825000, envelope = 0010, state = 00000000000000000000000000000010, amplitude_counter =  80
# At time               835000, envelope = 0010, state = 00000000000000000000000000000010, amplitude_counter =  81
# At time               845000, envelope = 0010, state = 00000000000000000000000000000010, amplitude_counter =  82
# At time               855000, envelope = 0010, state = 00000000000000000000000000000010, amplitude_counter =  83
# At time               865000, envelope = 0010, state = 00000000000000000000000000000010, amplitude_counter =  84
# At time               875000, envelope = 0010, state = 00000000000000000000000000000010, amplitude_counter =  85
# At time               885000, envelope = 0010, state = 00000000000000000000000000000010, amplitude_counter =  86
# At time               895000, envelope = 0010, state = 00000000000000000000000000000010, amplitude_counter =  87
# At time               905000, envelope = 0010, state = 00000000000000000000000000000010, amplitude_counter =  88
# At time               915000, envelope = 0010, state = 00000000000000000000000000000010, amplitude_counter =  89
# At time               925000, envelope = 0010, state = 00000000000000000000000000000010, amplitude_counter =  90
# At time               935000, envelope = 0010, state = 00000000000000000000000000000010, amplitude_counter =  91
# At time               945000, envelope = 0010, state = 00000000000000000000000000000010, amplitude_counter =  92
# At time               955000, envelope = 0010, state = 00000000000000000000000000000010, amplitude_counter =  93
# At time               965000, envelope = 0010, state = 00000000000000000000000000000010, amplitude_counter =  94
# At time               975000, envelope = 0010, state = 00000000000000000000000000000010, amplitude_counter =  95
# At time               985000, envelope = 0011, state = 00000000000000000000000000000010, amplitude_counter =  96
# At time               995000, envelope = 0011, state = 00000000000000000000000000000010, amplitude_counter =  97
# At time              1005000, envelope = 0011, state = 00000000000000000000000000000010, amplitude_counter =  98
# At time              1015000, envelope = 0011, state = 00000000000000000000000000000010, amplitude_counter =  99
# At time              1025000, envelope = 0011, state = 00000000000000000000000000000010, amplitude_counter = 100
# At time              1035000, envelope = 0011, state = 00000000000000000000000000000010, amplitude_counter = 101
# At time              1045000, envelope = 0011, state = 00000000000000000000000000000010, amplitude_counter = 102
# At time              1055000, envelope = 0011, state = 00000000000000000000000000000010, amplitude_counter = 103
# At time              1065000, envelope = 0011, state = 00000000000000000000000000000010, amplitude_counter = 104
# At time              1075000, envelope = 0011, state = 00000000000000000000000000000010, amplitude_counter = 105
# At time              1085000, envelope = 0011, state = 00000000000000000000000000000010, amplitude_counter = 106
# At time              1095000, envelope = 0011, state = 00000000000000000000000000000010, amplitude_counter = 107
# At time              1105000, envelope = 0011, state = 00000000000000000000000000000010, amplitude_counter = 108
# At time              1115000, envelope = 0011, state = 00000000000000000000000000000010, amplitude_counter = 109
# At time              1125000, envelope = 0011, state = 00000000000000000000000000000010, amplitude_counter = 110
# At time              1135000, envelope = 0011, state = 00000000000000000000000000000010, amplitude_counter = 111
# At time              1145000, envelope = 0011, state = 00000000000000000000000000000010, amplitude_counter = 112
